<?xml version="1.0" standalone="no"?>
<!DOCTYPE svg PUBLIC "-//W3C//DTD SVG 1.1//EN" "http://www.w3.org/Graphics/SVG/1.1/DTD/svg11.dtd" >
<svg xmlns="http://www.w3.org/2000/svg">
<metadata></metadata>
<defs>
<font id="orbitronregular" horiz-adv-x="1695" >
<font-face units-per-em="2048" ascent="1536" descent="-512" />
<missing-glyph horiz-adv-x="593" />
<glyph horiz-adv-x="2048" />
<glyph horiz-adv-x="2048" />
<glyph unicode="&#xd;" horiz-adv-x="2048" />
<glyph unicode=" "  horiz-adv-x="593" />
<glyph unicode="&#x09;" horiz-adv-x="593" />
<glyph unicode="&#xa0;" horiz-adv-x="593" />
<glyph unicode="!" horiz-adv-x="450" d="M119 0v221h221v-221h-221zM119 410v1065h221v-1065h-221z" />
<glyph unicode="&#x22;" horiz-adv-x="761" d="M121 1141v332h221v-332h-221zM422 1141v332h221v-332h-221z" />
<glyph unicode="#" horiz-adv-x="1632" d="M66 336v221h256l118 365h-311v221h381l111 325h221l-111 -325h440l111 325h221l-110 -325h174v-221h-244l-119 -365h299v-221h-368l-103 -336h-221l102 336h-440l-102 -336h-221l102 336h-186zM543 557h440l119 365h-440z" />
<glyph unicode="$" horiz-adv-x="1613" d="M70 266v86h221v-86q0 -19 13 -32t32 -13h360v406h-360q-110 0 -188 78t-78 188v315q0 110 78 188.5t188 78.5h360v221h222v-221h360q110 0 188 -78.5t78 -188.5v-86h-221v86q0 19 -13 32t-32 13h-360v-405h360q110 0 188 -78t78 -188v-316q0 -110 -78 -188t-188 -78h-360 v-221h-222v221h-360q-110 0 -188 78t-78 188zM291 893q0 -19 13 -32t32 -13h199h161v405h-360q-19 0 -32 -13t-13 -32v-315zM918 221h360q19 0 32 13t13 32v316q0 19 -13 32t-32 13h-360v-406z" />
<glyph unicode="%" horiz-adv-x="1978" d="M270 0v262l1444 1213l31 -263l-1444 -1212h-31z" />
<glyph unicode="&#x26;" horiz-adv-x="1921" d="M109 266v418q0 51 36.5 103.5t96.5 52.5q-52 40 -52 155v213q0 110 78.5 188.5t188.5 78.5h798q98 0 174 -64t93 -158v-145h-222v98q0 19 -13 32t-32 13h-798q-19 0 -32 -13t-13 -32v-270l950 -479v252h221v-338l260 -152v-213l-280 160q-30 -75 -96 -120.5t-150 -45.5 h-942q-110 0 -188 78t-78 188zM330 266q0 -19 13 -32t32 -13h942q28 0 39 25l-959 483h-22q-19 0 -32 -13t-13 -32v-418z" />
<glyph unicode="'" horiz-adv-x="458" d="M121 1141v332h221v-332h-221z" />
<glyph unicode="(" horiz-adv-x="567" d="M106 266v942q0 110 78.5 188.5t188.5 78.5h86v-222h-86q-19 0 -32 -13t-13 -32v-942q0 -19 13 -32t32 -13h86v-221h-86q-110 0 -188.5 78t-78.5 188z" />
<glyph unicode=")" horiz-adv-x="569" d="M115 0v221h86q19 0 32 13t13 32v942q0 19 -13 32t-32 13h-86v222h86q109 0 187.5 -78.5t78.5 -188.5v-942q0 -110 -78.5 -188t-187.5 -78h-86z" />
<glyph unicode="*" horiz-adv-x="1005" d="M51 1065l68 211l272 -90v287h221v-287l273 90l69 -211l-272 -88l168 -234l-178 -129l-170 232l-168 -232l-178 129l168 234z" />
<glyph unicode="+" horiz-adv-x="886" d="M35 496v221h295v297h221v-297h303v-221h-303v-301h-221v301h-295z" />
<glyph unicode="," horiz-adv-x="395" d="M111 221h221v-221q0 -99 -63 -173t-158 -89v483z" />
<glyph unicode="-" horiz-adv-x="1058" d="M121 496v221h819v-221h-819z" />
<glyph unicode="." horiz-adv-x="438" d="M111 0v221h221v-221h-221z" />
<glyph unicode="/" horiz-adv-x="1067" d="M12 0v262l1014 1213h31v-263l-1014 -1212h-31z" />
<glyph unicode="0" horiz-adv-x="1708" d="M117 266v942q0 110 78 188.5t188 78.5h942q110 0 188 -78.5t78 -188.5v-942q0 -110 -78 -188t-188 -78h-942q-110 0 -188 78t-78 188zM338 449l958 804h-913q-19 0 -32 -13t-13 -32v-759zM412 221h913q19 0 32 13t13 32v760z" />
<glyph unicode="1" horiz-adv-x="800" d="M2 977l416 498h264v-1475h-221v1180l-170 -203h-289z" />
<glyph unicode="2" horiz-adv-x="1699" d="M117 0v561q0 110 78 188t188 78h942q19 0 32 13t13 32v336q0 19 -13 32t-32 13h-942q-19 0 -32 -13t-13 -32v-86h-221v86q0 110 78 188.5t188 78.5h942q110 0 188 -78.5t78 -188.5v-336q0 -110 -78 -188t-188 -78h-942q-19 0 -32 -13t-13 -32v-295q0 -19 13 -32t32 -13 h1208v-221h-1474z" />
<glyph unicode="3" horiz-adv-x="1691" d="M109 266v62h221v-62q0 -19 13 -32t32 -13h942q19 0 32 13t13 32v330q0 19 -13 32t-32 13h-942v221h880q19 0 32 13t13 32v301q0 19 -13 32t-32 13h-880q-19 0 -32 -13t-13 -32v-82h-221v82q0 110 78 188.5t188 78.5h880q110 0 188.5 -78.5t78.5 -188.5v-301 q0 -55 -27 -114q41 -36 64.5 -88t23.5 -109v-330q0 -110 -78 -188t-188 -78h-942q-110 0 -188 78t-78 188z" />
<glyph unicode="4" horiz-adv-x="1495" d="M12 375v221l975 879h221v-879h217v-221h-217v-375h-221v375h-975zM334 596h653v530z" />
<glyph unicode="5" horiz-adv-x="1699" d="M117 266v86h221v-86q0 -19 13 -32t32 -13h942q19 0 32 13t13 32v336q0 19 -13 32t-32 13h-1208v221h4q-4 28 -4 45v562h1474v-222h-1208q-19 0 -32 -13t-13 -32v-295q0 -19 13 -32t32 -13h942q110 0 188 -78t78 -188v-336q0 -110 -78 -188t-188 -78h-942q-110 0 -188 78 t-78 188z" />
<glyph unicode="6" horiz-adv-x="1679" d="M117 266v942q0 110 78 188.5t188 78.5h963v-222h-963q-19 0 -32 -13t-13 -32v-295q0 -19 13 -32t32 -13h696h246q110 0 188 -78t78 -188v-336q0 -110 -78 -188t-188 -78h-942q-110 0 -188 78t-78 188zM338 266q0 -19 13 -32t32 -13h942q19 0 32 13t13 32v336q0 19 -13 32 t-32 13h-987v-381z" />
<glyph unicode="7" horiz-adv-x="1351" d="M6 1253v222h21h942q110 0 188 -78.5t78 -188.5v-1208h-221v1208q0 19 -13 32t-32 13h-963z" />
<glyph unicode="8" horiz-adv-x="1708" d="M117 266v336q0 90 51 156q-51 66 -51 155v295q0 110 78 188.5t188 78.5h942q98 0 173.5 -64t92.5 -158v-340q0 -89 -51 -155q51 -66 51 -156v-336q0 -110 -78 -188t-188 -78h-942q-110 0 -188 78t-78 188zM338 266q0 -19 13 -32t32 -13h942q19 0 32 13t13 32v336 q0 19 -13 32t-32 13h-942q-19 0 -32 -13t-13 -32v-336zM338 891q0 -19 13 -32t32 -13h942q19 0 32 13t13 32v315q0 19 -13 32t-32 13h-942q-19 0 -32 -13t-13 -32v-315z" />
<glyph unicode="9" d="M104 872v336q0 110 78.5 188.5t188.5 78.5h942q110 0 188 -78.5t78 -188.5v-942q0 -110 -78 -188t-188 -78h-942q-98 0 -172.5 63.5t-89.5 157.5h1204q19 0 32 13t13 32v295q0 19 -13 32t-32 13h-697h-245q-110 0 -188.5 78t-78.5 188zM326 872q0 -19 13 -32t32 -13h987 v381q0 19 -13 32t-32 13h-942q-19 0 -32 -13t-13 -32v-336z" />
<glyph unicode=":" horiz-adv-x="438" d="M111 0v221h221v-221h-221zM111 983v221h221v-221h-221z" />
<glyph unicode=";" horiz-adv-x="395" d="M104 221h222v-221q0 -99 -63.5 -173t-158.5 -89v483zM104 983v221h222v-221h-222z" />
<glyph unicode="&#x3c;" horiz-adv-x="968" d="M10 496v221l842 485v-256l-592 -340l592 -342v-256z" />
<glyph unicode="=" horiz-adv-x="1306" d="M121 293v221h1065v-221h-1065zM121 682v221h1065v-221h-1065z" />
<glyph unicode="&#x3e;" horiz-adv-x="972" d="M121 4v256l592 342l-592 340v256l842 -485v-221z" />
<glyph unicode="?" horiz-adv-x="1388" d="M63 1253v222h1018q110 0 188.5 -78.5t78.5 -188.5v-377q0 -110 -78.5 -188t-188.5 -78h-530q-19 0 -32 -13t-13 -32v-112h-221v112q0 110 78 188t188 78h530q19 0 32 13t13 32v377q0 19 -13 32t-32 13h-1018zM285 0v221h221v-221h-221z" />
<glyph unicode="@" horiz-adv-x="1701" d="M117 266v942q0 110 78 188.5t188 78.5h942q110 0 188 -78.5t78 -188.5v-819h-829q-110 0 -188 78t-78 188v164q0 110 78 188t188 78h184q110 0 188 -78t78 -188v-250h158v639q0 19 -13 32t-32 13h-942q-19 0 -32 -13t-13 -32v-942q0 -19 13 -32t32 -13h1208v-221h-1208 q-110 0 -188 78t-78 188zM676 614q0 -19 13 -32t32 -13h311v291q0 19 -13 32t-32 13h-266q-19 0 -32 -13t-13 -32v-246z" />
<glyph unicode="A" horiz-adv-x="1712" d="M119 0v1208q0 110 78 188.5t188 78.5h942q110 0 188 -78.5t78 -188.5v-1208h-221v516h-1032v-516h-221zM340 737h1032v471q0 19 -13 32t-32 13h-942q-19 0 -32 -13t-13 -32v-471z" />
<glyph unicode="B" horiz-adv-x="1703" d="M121 0v1475h1147q110 0 188 -78.5t78 -188.5v-301q0 -55 -27 -114q41 -36 64.5 -88t23.5 -109v-330q0 -110 -78 -188t-188 -78h-1208zM342 266q0 -19 13 -32t32 -13h942q19 0 32 13t13 32v330q0 19 -13 32t-32 13h-942q-19 0 -32 -13t-13 -32v-330zM342 907q0 -19 13 -32 t32 -13h881q19 0 32 13t13 32v301q0 19 -13 32t-32 13h-881q-19 0 -32 -13t-13 -32v-301z" />
<glyph unicode="C" horiz-adv-x="1683" d="M115 266v942q0 110 78 188.5t188 78.5h1204v-222h-1204q-19 0 -32 -13t-13 -32v-942q0 -19 13 -32t32 -13h1204v-221h-1204q-110 0 -188 78t-78 188z" />
<glyph unicode="D" horiz-adv-x="1708" d="M119 0v1475h1208q110 0 188 -78.5t78 -188.5v-942q0 -110 -78 -188t-188 -78h-1208zM340 266q0 -19 13 -32t32 -13h942q19 0 32 13t13 32v942q0 19 -13 32t-32 13h-942q-19 0 -32 -13t-13 -32v-942z" />
<glyph unicode="E" horiz-adv-x="1568" d="M119 0v1475h1351v-222h-1130v-405h909v-221h-909v-406h1130v-221h-1351z" />
<glyph unicode="F" horiz-adv-x="1480" d="M119 0v1475h1351v-222h-1130v-405h909v-221h-909v-627h-221z" />
<glyph unicode="G" horiz-adv-x="1699" d="M115 266v942q0 110 78 188.5t188 78.5h942q110 0 188 -78.5t78 -188.5v-88h-221v88q0 19 -13 32t-32 13h-942q-19 0 -32 -13t-13 -32v-942q0 -19 13 -32t32 -13h942q19 0 32 13t13 32v320h-348v221h569v-541q0 -110 -78 -188t-188 -78h-942q-110 0 -188 78t-78 188z" />
<glyph unicode="H" horiz-adv-x="1742" d="M117 0v1475h221v-627h1067v627h221v-1475h-221v627h-1067v-627h-221z" />
<glyph unicode="I" horiz-adv-x="450" d="M117 0v1475h221v-1475h-221z" />
<glyph unicode="J" horiz-adv-x="1597" d="M8 266v144h221v-144q0 -19 13 -32t32 -13h943q19 0 32 13t13 32v1209h221v-1209q0 -110 -78 -188t-188 -78h-943q-110 0 -188 78t-78 188z" />
<glyph unicode="K" horiz-adv-x="1632" d="M117 0v1475h221v-627h410l526 627h262v-31l-592 -707l592 -706v-31h-262l-526 627h-410v-627h-221z" />
<glyph unicode="L" horiz-adv-x="1595" d="M117 0v1477h221v-1256h1253v-221h-1474z" />
<glyph unicode="M" horiz-adv-x="1900" d="M115 0v1475h262l573 -682l572 682h264v-1475h-221v1180l-615 -731l-614 731v-1180h-221z" />
<glyph unicode="N" horiz-adv-x="1703" d="M115 0v1475h262l991 -1180v1180h221v-1475h-262l-991 1180v-1180h-221z" />
<glyph unicode="O" d="M111 266v942q0 110 78 188.5t188 78.5h942q110 0 188 -78.5t78 -188.5v-942q0 -110 -78 -188t-188 -78h-942q-110 0 -188 78t-78 188zM332 266q0 -19 13 -32t32 -13h942q19 0 32 13t13 32v942q0 19 -13 32t-32 13h-942q-19 0 -32 -13t-13 -32v-942z" />
<glyph unicode="P" horiz-adv-x="1619" d="M115 0v1473h1208q110 0 188 -79t78 -188v-413q0 -109 -78 -188t-188 -79h-942q-17 0 -45 4v-530h-221zM336 793q0 -19 13 -32t32 -13h942q19 0 32 13t13 32v413q0 19 -13 32t-32 13h-942q-19 0 -32 -13t-13 -32v-413z" />
<glyph unicode="Q" horiz-adv-x="1810" d="M-45 905q0 -19 13 -32t32 -13h942q19 0 32 13t13 32v942q0 19 -13 32t-32 13h-942q-19 0 -32 -13t-13 -32v-942z" />
<glyph unicode="R" horiz-adv-x="1689" d="M113 0v1473h1208q110 0 188 -79t78 -188v-413q0 -109 -78 -188t-188 -79h-150l416 -495v-31h-262l-442 526h-504q-17 0 -45 4v-530h-221zM334 793q0 -19 13 -32t32 -13h942q19 0 32 13t13 32v413q0 19 -13 32t-32 13h-942q-19 0 -32 -13t-13 -32v-413z" />
<glyph unicode="S" horiz-adv-x="1683" d="M104 266v86h222v-86q0 -19 13 -32t32 -13h942q19 0 32 13t13 32v316q0 19 -13 32t-32 13h-942q-110 0 -188.5 78t-78.5 188v315q0 110 78.5 188.5t188.5 78.5h942q110 0 188 -78.5t78 -188.5v-86h-221v86q0 19 -13 32t-32 13h-942q-19 0 -32 -13t-13 -32v-315 q0 -19 13 -32t32 -13h942q110 0 188 -78t78 -188v-316q0 -110 -78 -188t-188 -78h-942q-110 0 -188.5 78t-78.5 188z" />
<glyph unicode="T" horiz-adv-x="1554" d="M41 1253v222h1475v-222h-627v-1253h-221v1253h-627z" />
<glyph unicode="U" d="M111 266v1209h221v-1209q0 -19 13 -32t32 -13h942q19 0 32 13t13 32v1209h221v-1209q0 -110 -78 -188t-188 -78h-942q-110 0 -188 78t-78 188z" />
<glyph unicode="V" horiz-adv-x="2054" d="M72 1475h256l706 -1225l707 1225h254l-850 -1475h-221z" />
<glyph unicode="W" horiz-adv-x="2414" d="M72 1475h235l391 -1076l392 1076h235l391 -1076l391 1076h236l-537 -1475h-180l-420 1149l-418 -1149l-4 2l2 -2h-178z" />
<glyph unicode="X" horiz-adv-x="1662" d="M94 31l592 706l-592 707v31h262l475 -566l476 566z" />
<glyph unicode="Y" horiz-adv-x="1650" d="M35 1475h260l530 -672l529 672h262l-680 -922v-553h-221v553z" />
<glyph unicode="Z" horiz-adv-x="1681" d="M104 0v262l1180 991h-1180v222h1475v-263l-1180 -991h1180v-221h-1475z" />
<glyph unicode="[" horiz-adv-x="563" d="M111 0v1475h352v-222h-131v-1032h131v-221h-352z" />
<glyph unicode="\" horiz-adv-x="1064" d="M10 1212v263h31l1014 -1213v-262h-31z" />
<glyph unicode="]" horiz-adv-x="565" d="M104 0v221h132v1032h-132v222h353v-1475h-353z" />
<glyph unicode="_" d="M111 0h1474v-221h-1474v221z" />
<glyph unicode="`" horiz-adv-x="436" d="M66 2025h221l82 -331h-222z" />
<glyph unicode="a" horiz-adv-x="1421" d="M106 266v439h988v217q0 19 -13 32t-32 13h-943v221h943q110 0 188 -78t78 -188v-922h-942q-110 0 -188.5 78t-78.5 188zM328 266q0 -19 13 -32t32 -13h721v262h-766v-217z" />
<glyph unicode="b" horiz-adv-x="1366" d="M111 0v1577h221v-389h721q110 0 188 -78t78 -188v-656q0 -110 -78 -188t-188 -78h-942zM332 266q0 -19 13 -32t32 -13h676q19 0 32 13t13 32v656q0 19 -13 32t-32 13h-676q-19 0 -32 -13t-13 -32v-656z" />
<glyph unicode="c" horiz-adv-x="1423" d="M104 266v656q0 110 78.5 188t188.5 78h938v-221h-938q-19 0 -32 -13t-13 -32v-656q0 -19 13 -32t32 -13h942v-221h-942q-110 0 -188.5 78t-78.5 188z" />
<glyph unicode="d" horiz-adv-x="1366" d="M47 266v656q0 110 78 188t188 78h721v389h221v-1577h-942q-110 0 -188 78t-78 188zM268 266q0 -19 13 -32t32 -13h676q19 0 32 13t13 32v656q0 19 -13 32t-32 13h-676q-19 0 -32 -13t-13 -32v-656z" />
<glyph unicode="e" horiz-adv-x="1417" d="M104 266v656q0 110 78.5 188t188.5 78h676q110 0 188 -78t78 -188v-439h-987v-217q0 -19 13 -32t32 -13h942v-221h-942q-110 0 -188.5 78t-78.5 188zM326 705h766v217q0 19 -13 32t-32 13h-676q-19 0 -32 -13t-13 -32v-217z" />
<glyph unicode="f" horiz-adv-x="833" d="M109 0v655v656q0 110 78 188t188 78h442v-221h-442q-19 0 -32 -13t-13 -32v-123h487v-221h-487v-967h-221z" />
<glyph unicode="g" horiz-adv-x="1398" d="M84 266v656q0 110 78 188t188 78h676q110 0 188 -78t78 -188v-469v-2v-656q0 -110 -78 -188t-188 -78h-733v221h733q19 0 32 13t13 32v205h-721q-110 0 -188 78t-78 188zM305 266q0 -19 13 -32t32 -13h676q19 0 32 13t13 32v656q0 19 -13 32t-32 13h-676q-19 0 -32 -13 t-13 -32v-656z" />
<glyph unicode="h" horiz-adv-x="1368" d="M111 0v1577h221v-389h721q109 0 187.5 -78t78.5 -188v-922h-221v922q0 19 -13 32t-32 13h-676q-19 0 -32 -13t-13 -32v-922h-221z" />
<glyph unicode="i" horiz-adv-x="425" d="M106 0v1188h222v-1188h-222zM106 1356v221h222v-221h-222z" />
<glyph unicode="j" horiz-adv-x="489" d="M-383 -250h508q19 0 32 13t13 32v1389h221v-733v-656q0 -110 -78 -188t-188 -78h-508v221zM170 1356v221h221v-221h-221z" />
<glyph unicode="k" horiz-adv-x="1323" d="M111 0v1577h221v-872h266l444 483h263v-31l-510 -563l510 -563v-31h-263l-444 483h-266v-483h-221z" />
<glyph unicode="l" horiz-adv-x="618" d="M106 266v656v655h222v-1311q0 -19 13 -32t32 -13h221v-221h-221q-110 0 -188.5 78t-78.5 188z" />
<glyph unicode="m" horiz-adv-x="2002" d="M111 0v1188h1517q110 0 188 -78t78 -188v-922h-219v922q0 19 -13.5 32t-33.5 13h-469q-19 0 -32 -13t-13 -32v-922h-221v922q0 19 -13 32t-32 13h-471q-19 0 -32 -13t-13 -32v-922h-221z" />
<glyph unicode="n" horiz-adv-x="1425" d="M111 0v1188h942q110 0 188 -78t78 -188v-922h-221v922q0 19 -13 32t-32 13h-676q-19 0 -32 -13t-13 -32v-922h-221z" />
<glyph unicode="o" horiz-adv-x="1417" d="M104 266v656q0 110 78.5 188t188.5 78h676q110 0 188 -78t78 -188v-656q0 -110 -78 -188t-188 -78h-676q-110 0 -188.5 78t-78.5 188zM326 266q0 -19 13 -32t32 -13h676q19 0 32 13t13 32v656q0 19 -13 32t-32 13h-676q-19 0 -32 -13t-13 -32v-656z" />
<glyph unicode="p" horiz-adv-x="1359" d="M111 -471v1659h942q110 0 188 -78t78 -188v-656q0 -110 -78 -188t-188 -78h-721v-471h-221zM332 266q0 -19 13 -32t32 -13h676q19 0 32 13t13 32v656q0 19 -13 32t-32 13h-676q-19 0 -32 -13t-13 -32v-656z" />
<glyph unicode="q" horiz-adv-x="1359" d="M41 266v656q0 110 78 188t188 78h942v-1659h-221v471h-721q-110 0 -188 78t-78 188zM262 266q0 -19 13 -32t32 -13h676q19 0 32 13t13 32v656q0 19 -13 32t-32 13h-676q-19 0 -32 -13t-13 -32v-656z" />
<glyph unicode="r" horiz-adv-x="1048" d="M106 0v266v656q0 110 78.5 188t188.5 78h663v-221h-663q-19 0 -32 -13t-13 -32v-922h-222z" />
<glyph unicode="s" horiz-adv-x="1404" d="M98 266v45h221v-45q0 -19 13.5 -32t32.5 -13h675q19 0 32 13t13 32v172q0 19 -13 32t-32 13h-675q-110 0 -188.5 78.5t-78.5 188.5v172q0 110 78.5 188t188.5 78h675q110 0 188.5 -78t78.5 -188v-45h-222v45q0 19 -13 32t-32 13h-675q-19 0 -32.5 -13t-13.5 -32v-172 q0 -19 13.5 -32t32.5 -13h675q110 0 188.5 -78.5t78.5 -188.5v-172q0 -110 -78.5 -188t-188.5 -78h-675q-110 0 -188.5 78t-78.5 188z" />
<glyph unicode="t" horiz-adv-x="839" d="M109 266v656v655h221v-389h487v-221h-487v-701q0 -19 13 -32t32 -13h442v-221h-442q-110 0 -188 78t-78 188z" />
<glyph unicode="u" horiz-adv-x="1423" d="M109 266v922h221v-922q0 -19 13 -32t32 -13h676q19 0 32 13t13 32v922h221v-922q0 -110 -78 -188t-188 -78h-676q-110 0 -188 78t-78 188z" />
<glyph unicode="v" horiz-adv-x="1617" d="M43 1188h256l510 -938l512 938h254l-655 -1188h-222z" />
<glyph unicode="w" horiz-adv-x="2170" d="M72 1188h235l322 -789l342 789h252l362 -789l301 789h236l-447 -1188h-180l-399 883l-377 -883l-4 2l2 -2h-178z" />
<glyph unicode="x" horiz-adv-x="1417" d="M94 31l469 573l-469 553v31h262l353 -412l352 412z" />
<glyph unicode="y" horiz-adv-x="1402" d="M86 266v918h221v-918q0 -19 13 -32t32 -13h676q19 0 32 13t13 32v918h221v-729v-4v-656q0 -110 -78 -188t-188 -78h-733v221h733q19 0 32 13t13 32v205h-721q-110 0 -188 78t-78 188z" />
<glyph unicode="z" horiz-adv-x="1429" d="M111 0v262l913 705h-913v221h1208v-262l-913 -705h913v-221h-1208z" />
<glyph unicode="{" horiz-adv-x="591" d="M47 639v221l90 51v297q0 110 78 188.5t188 78.5h86v-222h-86q-19 0 -32 -13t-13 -32v-346l-143 -112l143 -119v-365q0 -19 13 -32t32 -13h86v-221h-86q-110 0 -188 78t-78 188v320z" />
<glyph unicode="|" horiz-adv-x="438" d="M111 -223v1919h221v-1919h-221z" />
<glyph unicode="}" horiz-adv-x="591" d="M104 0v221h86q19 0 32.5 13t13.5 32v365l143 119l-143 112v346q0 19 -13.5 32t-32.5 13h-86v222h86q110 0 188.5 -78.5t78.5 -188.5v-297l90 -51v-221l-90 -53v-320q0 -110 -78.5 -188t-188.5 -78h-86z" />
<glyph unicode="~" horiz-adv-x="827" d="M49 567v154q71 29 152 29q42 0 85.5 -13t81.5 -32t75.5 -38.5t81.5 -36t85 -20.5q80 0 160 54v-152q-88 -37 -160 -37q-48 0 -103 21.5t-97.5 48t-99.5 48t-109 21.5q-122 0 -152 -47z" />
<glyph unicode="&#xa1;" horiz-adv-x="430" d="M109 0v1065h221v-1065h-221zM109 1253v222h221v-222h-221z" />
<glyph unicode="&#xa2;" horiz-adv-x="1302" d="M68 266v676q0 110 78 188t188 78h227v262h221v-262h490v-221h-490v-766h490v-221h-490v-223h-221v223h-227q-110 0 -188 78t-78 188zM289 266q0 -19 13 -32t32 -13h227v766h-227q-19 0 -32 -13t-13 -32v-676z" />
<glyph unicode="&#xa3;" horiz-adv-x="1503" d="M80 0v221h205v406h-205v221h205v360q0 110 78 188.5t188 78.5h590q110 0 188 -78.5t78 -188.5v-61h-221v61q0 19 -13 32t-32 13h-590q-19 0 -32 -13t-13 -32v-360h684v-221h-684v-406h901v-221h-1327z" />
<glyph unicode="&#xa8;" horiz-adv-x="788" d="M111 1694v221h221v-221h-221zM459 1694v221h221v-221h-221z" />
<glyph unicode="&#xad;" horiz-adv-x="1058" d="M121 496v221h819v-221h-819z" />
<glyph unicode="&#xb0;" horiz-adv-x="899" d="M92 1044v164q0 110 78 188.5t188 78.5h185q110 0 188 -78.5t78 -188.5v-164q0 -110 -78 -188t-188 -78h-185q-110 0 -188 78t-78 188zM272 1004q0 -19 13 -32.5t32 -13.5h267q19 0 32 13.5t13 32.5v245q0 19 -13 32t-32 13h-267q-19 0 -32 -13t-13 -32v-245z" />
<glyph unicode="&#xb4;" horiz-adv-x="436" d="M68 1694l82 331h221l-82 -331h-221z" />
<glyph unicode="&#xb6;" horiz-adv-x="1705" d="M115 793v413q0 109 78 188t188 79h1208v-1473h-221v526h-207v-526h-221v526h-559q-110 0 -188 79t-78 188zM336 793q0 -19 13 -32t32 -13h559v503h-559q-19 0 -32 -13t-13 -32v-413zM1161 748h207v503h-207v-503z" />
<glyph unicode="&#xb8;" horiz-adv-x="436" d="M68 -332l82 332h221l-82 -332h-221z" />
<glyph unicode="&#xbf;" horiz-adv-x="1382" d="M39 266v377q0 110 78 188t188 78h531q19 0 32 13t13 32v125h221v-125q0 -110 -78 -188t-188 -78h-531q-19 0 -32 -13t-13 -32v-377q0 -19 13 -32t32 -13h1018v-221h-1018q-110 0 -188 78t-78 188zM881 1253v222h221v-222h-221z" />
<glyph unicode="&#xc0;" horiz-adv-x="1712" d="M119 0v1208q0 110 78 188.5t188 78.5h942q110 0 188 -78.5t78 -188.5v-1208h-221v516h-1032v-516h-221zM340 737h1032v471q0 19 -13 32t-32 13h-942q-19 0 -32 -13t-13 -32v-471zM705 2011h221l82 -332h-222z" />
<glyph unicode="&#xc1;" horiz-adv-x="1712" d="M119 0v1208q0 110 78 188.5t188 78.5h942q110 0 188 -78.5t78 -188.5v-1208h-221v516h-1032v-516h-221zM340 737h1032v471q0 19 -13 32t-32 13h-942q-19 0 -32 -13t-13 -32v-471zM705 1677l81 332h222l-82 -332h-221z" />
<glyph unicode="&#xc2;" horiz-adv-x="1712" d="M119 0v1208q0 110 78 188.5t188 78.5h942q110 0 188 -78.5t78 -188.5v-1208h-221v516h-1032v-516h-221zM340 737h1032v471q0 19 -13 32t-32 13h-942q-19 0 -32 -13t-13 -32v-471zM606 1677l174 289h152l174 -289h-154l-96 156l-98 -156h-152z" />
<glyph unicode="&#xc3;" horiz-adv-x="1712" d="M119 0v1208q0 110 78 188.5t188 78.5h942q110 0 188 -78.5t78 -188.5v-1208h-221v516h-1032v-516h-221zM340 737h1032v471q0 19 -13 32t-32 13h-942q-19 0 -32 -13t-13 -32v-471zM496 1780v153q71 29 151 29q51 0 107 -19.5t98 -44t98.5 -47.5t106.5 -28q81 0 160 53 v-152q-86 -36 -160 -36q-48 0 -103 21.5t-97.5 48t-100 48t-109.5 21.5q-121 0 -151 -47z" />
<glyph unicode="&#xc4;" horiz-adv-x="1712" d="M119 0v1208q0 110 78 188.5t188 78.5h942q110 0 188 -78.5t78 -188.5v-1208h-221v516h-1032v-516h-221zM340 737h1032v471q0 19 -13 32t-32 13h-942q-19 0 -32 -13t-13 -32v-471zM571 1659v221h222v-221h-222zM920 1659v221h221v-221h-221z" />
<glyph unicode="&#xc5;" horiz-adv-x="1712" d="M119 0v1208q0 110 78 188.5t188 78.5h942q110 0 188 -78.5t78 -188.5v-1208h-221v516h-1032v-516h-221zM340 737h1032v471q0 19 -13 32t-32 13h-942q-19 0 -32 -13t-13 -32v-471zM688 1790v111q0 44 32.5 76t78.5 32h114q46 0 78.5 -32t32.5 -76v-111q0 -44 -32.5 -76.5 t-78.5 -32.5h-114q-46 0 -78.5 32.5t-32.5 76.5zM770 1784q0 -9 5 -15t13 -6h136q8 0 13 6t5 15v123q0 20 -18 20h-136q-18 0 -18 -20v-123z" />
<glyph unicode="&#xc6;" horiz-adv-x="2816" d="M111 0v1208q0 110 78 188.5t188 78.5h2339v-222h-1131v-405h909v-221h-909v-406h1131v-221h-1352v516h-1032v-516h-221zM332 737h1032v471q0 19 -13 32t-32 13h-942q-19 0 -32 -13t-13 -32v-471z" />
<glyph unicode="&#xc7;" horiz-adv-x="1683" d="M115 266v942q0 110 78 188.5t188 78.5h1204v-222h-1204q-19 0 -32 -13t-13 -32v-942q0 -19 13 -32t32 -13h1204v-221h-592l-82 -332h-221l82 332h-391q-110 0 -188 78t-78 188z" />
<glyph unicode="&#xc8;" horiz-adv-x="1568" d="M119 0v1475h1351v-222h-1130v-405h909v-221h-909v-406h1130v-221h-1351zM633 2011h221l82 -332h-221z" />
<glyph unicode="&#xc9;" horiz-adv-x="1568" d="M119 0v1475h1351v-222h-1130v-405h909v-221h-909v-406h1130v-221h-1351zM633 1679l82 332h221l-82 -332h-221z" />
<glyph unicode="&#xca;" horiz-adv-x="1568" d="M119 0v1475h1351v-222h-1130v-405h909v-221h-909v-406h1130v-221h-1351zM535 1677l174 289h151l174 -289h-153l-97 156l-98 -156h-151z" />
<glyph unicode="&#xcb;" horiz-adv-x="1568" d="M119 0v1475h1351v-222h-1130v-405h909v-221h-909v-406h1130v-221h-1351zM500 1679v222h221v-222h-221zM848 1679v222h221v-222h-221z" />
<glyph unicode="&#xcc;" horiz-adv-x="450" d="M74 2011h221l82 -332h-221zM117 0v1475h221v-1475h-221z" />
<glyph unicode="&#xcd;" horiz-adv-x="450" d="M74 1679l82 332h221l-82 -332h-221zM117 0v1475h221v-1475h-221z" />
<glyph unicode="&#xce;" horiz-adv-x="450" d="M-25 1677l175 289h151l174 -289h-153l-97 156l-98 -156h-152zM117 0v1475h221v-1475h-221z" />
<glyph unicode="&#xcf;" horiz-adv-x="450" d="M-59 1679v222h221v-222h-221zM117 0v1475h221v-1475h-221zM289 1679v222h221v-222h-221z" />
<glyph unicode="&#xd1;" horiz-adv-x="1703" d="M115 0v1475h262l991 -1180v1180h221v-1475h-262l-991 1180v-1180h-221zM492 1780v153q71 29 151 29q51 0 107 -19.5t98 -44t98.5 -47.5t106.5 -28q80 0 159 53v-152q-86 -36 -159 -36q-48 0 -103 21.5t-97.5 48t-100 48t-109.5 21.5q-121 0 -151 -47z" />
<glyph unicode="&#xd2;" d="M111 266v942q0 110 78 188.5t188 78.5h942q110 0 188 -78.5t78 -188.5v-942q0 -110 -78 -188t-188 -78h-942q-110 0 -188 78t-78 188zM332 266q0 -19 13 -32t32 -13h942q19 0 32 13t13 32v942q0 19 -13 32t-32 13h-942q-19 0 -32 -13t-13 -32v-942zM696 2011h222l81 -332 h-221z" />
<glyph unicode="&#xd3;" d="M111 266v942q0 110 78 188.5t188 78.5h942q110 0 188 -78.5t78 -188.5v-942q0 -110 -78 -188t-188 -78h-942q-110 0 -188 78t-78 188zM332 266q0 -19 13 -32t32 -13h942q19 0 32 13t13 32v942q0 19 -13 32t-32 13h-942q-19 0 -32 -13t-13 -32v-942zM696 1679l82 332h221 l-81 -332h-222z" />
<glyph unicode="&#xd4;" d="M111 266v942q0 110 78 188.5t188 78.5h942q110 0 188 -78.5t78 -188.5v-942q0 -110 -78 -188t-188 -78h-942q-110 0 -188 78t-78 188zM332 266q0 -19 13 -32t32 -13h942q19 0 32 13t13 32v942q0 19 -13 32t-32 13h-942q-19 0 -32 -13t-13 -32v-942zM598 1677l174 289h152 l174 -289h-154l-96 156l-98 -156h-152z" />
<glyph unicode="&#xd5;" d="M111 266v942q0 110 78 188.5t188 78.5h942q110 0 188 -78.5t78 -188.5v-942q0 -110 -78 -188t-188 -78h-942q-110 0 -188 78t-78 188zM332 266q0 -19 13 -32t32 -13h942q19 0 32 13t13 32v942q0 19 -13 32t-32 13h-942q-19 0 -32 -13t-13 -32v-942zM487 1780v153 q71 29 152 29q51 0 107 -19.5t98 -44t98.5 -47.5t106.5 -28q80 0 159 53v-152q-86 -36 -159 -36q-48 0 -103 21.5t-97.5 48t-100 48t-109.5 21.5q-122 0 -152 -47z" />
<glyph unicode="&#xd6;" d="M111 266v942q0 110 78 188.5t188 78.5h942q110 0 188 -78.5t78 -188.5v-942q0 -110 -78 -188t-188 -78h-942q-110 0 -188 78t-78 188zM332 266q0 -19 13 -32t32 -13h942q19 0 32 13t13 32v942q0 19 -13 32t-32 13h-942q-19 0 -32 -13t-13 -32v-942zM563 1679v222h221 v-222h-221zM911 1679v222h222v-222h-222z" />
<glyph unicode="&#xd7;" horiz-adv-x="1118" d="M109 215l305 399l-305 400v30h262l188 -258l189 258h262z" />
<glyph unicode="&#xd9;" d="M111 266v1209h221v-1209q0 -19 13 -32t32 -13h942q19 0 32 13t13 32v1209h221v-1209q0 -110 -78 -188t-188 -78h-942q-110 0 -188 78t-78 188zM696 2011h222l81 -332h-221z" />
<glyph unicode="&#xda;" d="M111 266v1209h221v-1209q0 -19 13 -32t32 -13h942q19 0 32 13t13 32v1209h221v-1209q0 -110 -78 -188t-188 -78h-942q-110 0 -188 78t-78 188zM696 1679l82 332h221l-81 -332h-222z" />
<glyph unicode="&#xdb;" d="M111 266v1209h221v-1209q0 -19 13 -32t32 -13h942q19 0 32 13t13 32v1209h221v-1209q0 -110 -78 -188t-188 -78h-942q-110 0 -188 78t-78 188zM598 1677l174 289h152l174 -289h-154l-96 156l-98 -156h-152z" />
<glyph unicode="&#xdc;" d="M111 266v1209h221v-1209q0 -19 13 -32t32 -13h942q19 0 32 13t13 32v1209h221v-1209q0 -110 -78 -188t-188 -78h-942q-110 0 -188 78t-78 188zM563 1679v222h221v-222h-221zM911 1679v222h222v-222h-222z" />
<glyph unicode="&#xdd;" horiz-adv-x="1650" d="M35 1475h260l530 -672l529 672h262l-680 -922v-553h-221v553zM674 1679l82 332h221l-82 -332h-221z" />
<glyph unicode="&#xdf;" horiz-adv-x="1705" d="M117 0v1208q0 110 78 188.5t188 78.5h942q98 0 173.5 -64t92.5 -158v-340q0 -89 -51 -155q51 -66 51 -156v-336q0 -110 -78 -188t-188 -78h-766v221h766q19 0 32 13t13 32v336q0 19 -13 32t-32 13h-766v199h766q19 0 32 13t13 32v315q0 19 -13 32t-32 13h-942 q-19 0 -32 -13t-13 -32v-1206h-221z" />
<glyph unicode="&#xe0;" horiz-adv-x="1484" d="M106 266v439h988v217q0 19 -13 32t-32 13h-943v221h943q110 0 188 -78t78 -188v-922h-942q-110 0 -188.5 78t-78.5 188zM328 266q0 -19 13 -32t32 -13h721v262h-766v-217zM590 1802h221l82 -332h-221z" />
<glyph unicode="&#xe1;" horiz-adv-x="1484" d="M106 266v439h988v217q0 19 -13 32t-32 13h-943v221h943q110 0 188 -78t78 -188v-922h-942q-110 0 -188.5 78t-78.5 188zM328 266q0 -19 13 -32t32 -13h721v262h-766v-217zM590 1470l82 332h221l-82 -332h-221z" />
<glyph unicode="&#xe2;" horiz-adv-x="1484" d="M106 266v439h988v217q0 19 -13 32t-32 13h-943v221h943q110 0 188 -78t78 -188v-922h-942q-110 0 -188.5 78t-78.5 188zM328 266q0 -19 13 -32t32 -13h721v262h-766v-217zM492 1470l174 289h151l174 -289h-153l-97 156l-98 -156h-151z" />
<glyph unicode="&#xe3;" horiz-adv-x="1484" d="M106 266v439h988v217q0 19 -13 32t-32 13h-943v221h943q110 0 188 -78t78 -188v-922h-942q-110 0 -188.5 78t-78.5 188zM328 266q0 -19 13 -32t32 -13h721v262h-766v-217zM381 1569v153q71 29 151 29q51 0 107 -19.5t98 -44t98.5 -47.5t106.5 -28q81 0 160 53v-152 q-86 -36 -160 -36q-48 0 -103 21.5t-97.5 48t-100 48t-109.5 21.5q-121 0 -151 -47z" />
<glyph unicode="&#xe4;" horiz-adv-x="1484" d="M106 266v439h988v217q0 19 -13 32t-32 13h-943v221h943q110 0 188 -78t78 -188v-922h-942q-110 0 -188.5 78t-78.5 188zM328 266q0 -19 13 -32t32 -13h721v262h-766v-217zM457 1470v222h221v-222h-221zM805 1470v222h221v-222h-221z" />
<glyph unicode="&#xe5;" horiz-adv-x="1484" d="M106 266v439h988v217q0 19 -13 32t-32 13h-943v221h943q110 0 188 -78t78 -188v-922h-942q-110 0 -188.5 78t-78.5 188zM328 266q0 -19 13 -32t32 -13h721v262h-766v-217zM573 1579v111q0 44 32.5 76t78.5 32h115q46 0 78 -32t32 -76v-111q0 -45 -32.5 -77t-77.5 -32 h-115q-46 0 -78.5 32.5t-32.5 76.5zM655 1573q0 -9 5.5 -15t13.5 -6h135q8 0 13 6t5 15v123q0 20 -18 20h-135q-8 0 -13.5 -5.5t-5.5 -14.5v-123z" />
<glyph unicode="&#xe6;" horiz-adv-x="2412" d="M109 266v439h987v217q0 19 -13 32t-32 13h-942v221h1929q110 0 188 -78t78 -188v-439h-987v-223q1 -17 14 -28t31 -11h942v-221h-1929q-110 0 -188 78t-78 188zM330 266q0 -19 13 -32t32 -13h721v262h-766v-217zM1317 705h766v217q0 19 -13 32t-32 13h-676q-19 0 -32 -13 t-13 -32v-217z" />
<glyph unicode="&#xe7;" horiz-adv-x="1419" d="M104 266v656q0 110 78.5 188t188.5 78h938v-221h-938q-19 0 -32 -13t-13 -32v-656q0 -19 13 -32t32 -13h942v-221h-942q-110 0 -188.5 78t-78.5 188zM557 -332l82 332h221l-82 -332h-221z" />
<glyph unicode="&#xe8;" horiz-adv-x="1306" d="M104 266v656q0 110 78.5 188t188.5 78h676q110 0 188 -78t78 -188v-439h-987v-217q0 -19 13 -32t32 -13h942v-221h-942q-110 0 -188.5 78t-78.5 188zM326 705h766v217q0 19 -13 32t-32 13h-676q-19 0 -32 -13t-13 -32v-217zM502 1802h221l82 -332h-221z" />
<glyph unicode="&#xe9;" horiz-adv-x="1306" d="M104 266v656q0 110 78.5 188t188.5 78h676q110 0 188 -78t78 -188v-439h-987v-217q0 -19 13 -32t32 -13h942v-221h-942q-110 0 -188.5 78t-78.5 188zM326 705h766v217q0 19 -13 32t-32 13h-676q-19 0 -32 -13t-13 -32v-217zM502 1473l82 331h221l-82 -331h-221z" />
<glyph unicode="&#xea;" horiz-adv-x="1306" d="M104 266v656q0 110 78.5 188t188.5 78h676q110 0 188 -78t78 -188v-439h-987v-217q0 -19 13 -32t32 -13h942v-221h-942q-110 0 -188.5 78t-78.5 188zM326 705h766v217q0 19 -13 32t-32 13h-676q-19 0 -32 -13t-13 -32v-217zM403 1470l175 289h151l174 -289h-153l-97 156 l-98 -156h-152z" />
<glyph unicode="&#xeb;" horiz-adv-x="1306" d="M104 266v656q0 110 78.5 188t188.5 78h676q110 0 188 -78t78 -188v-439h-987v-217q0 -19 13 -32t32 -13h942v-221h-942q-110 0 -188.5 78t-78.5 188zM326 705h766v217q0 19 -13 32t-32 13h-676q-19 0 -32 -13t-13 -32v-217zM369 1470v222h221v-222h-221zM717 1470v222 h221v-222h-221z" />
<glyph unicode="&#xec;" horiz-adv-x="438" d="M33 1804h221l82 -331h-221zM115 0v1188h221v-1188h-221z" />
<glyph unicode="&#xed;" horiz-adv-x="438" d="M100 1470l82 332h221l-81 -332h-222zM104 0v1188h222v-1188h-222z" />
<glyph unicode="&#xee;" horiz-adv-x="438" d="M-31 1470l174 289h152l174 -289h-154l-96 156l-98 -156h-152zM104 0v1188h222v-1188h-222z" />
<glyph unicode="&#xef;" horiz-adv-x="438" d="M-66 1475v221h222v-221h-222zM113 0v1188h221v-1188h-221zM283 1475v221h221v-221h-221z" />
<glyph unicode="&#xf1;" horiz-adv-x="1449" d="M111 0v1188h942q110 0 188 -78t78 -188v-922h-221v922q0 19 -13 32t-32 13h-676q-19 0 -32 -13t-13 -32v-922h-221zM365 1567v153q71 29 151 29q51 0 107 -19.5t98 -44t98.5 -47.5t106.5 -28q80 0 159 53v-152q-86 -36 -159 -36q-48 0 -103 21.5t-97.5 48t-100 48 t-109.5 21.5q-121 0 -151 -47z" />
<glyph unicode="&#xf2;" horiz-adv-x="1417" d="M104 266v656q0 110 78.5 188t188.5 78h676q110 0 188 -78t78 -188v-656q0 -110 -78 -188t-188 -78h-676q-110 0 -188.5 78t-78.5 188zM326 266q0 -19 13 -32t32 -13h676q19 0 32 13t13 32v656q0 19 -13 32t-32 13h-676q-19 0 -32 -13t-13 -32v-656zM557 1804h221l82 -331 h-221z" />
<glyph unicode="&#xf3;" horiz-adv-x="1417" d="M104 266v656q0 110 78.5 188t188.5 78h676q110 0 188 -78t78 -188v-656q0 -110 -78 -188t-188 -78h-676q-110 0 -188.5 78t-78.5 188zM326 266q0 -19 13 -32t32 -13h676q19 0 32 13t13 32v656q0 19 -13 32t-32 13h-676q-19 0 -32 -13t-13 -32v-656zM557 1473l82 331h221 l-82 -331h-221z" />
<glyph unicode="&#xf4;" horiz-adv-x="1417" d="M104 266v656q0 110 78.5 188t188.5 78h676q110 0 188 -78t78 -188v-656q0 -110 -78 -188t-188 -78h-676q-110 0 -188.5 78t-78.5 188zM326 266q0 -19 13 -32t32 -13h676q19 0 32 13t13 32v656q0 19 -13 32t-32 13h-676q-19 0 -32 -13t-13 -32v-656zM459 1470l174 289h151 l174 -289h-153l-96 156l-99 -156h-151z" />
<glyph unicode="&#xf5;" horiz-adv-x="1417" d="M104 266v656q0 110 78.5 188t188.5 78h676q110 0 188 -78t78 -188v-656q0 -110 -78 -188t-188 -78h-676q-110 0 -188.5 78t-78.5 188zM326 266q0 -19 13 -32t32 -13h676q19 0 32 13t13 32v656q0 19 -13 32t-32 13h-676q-19 0 -32 -13t-13 -32v-656zM348 1567v153 q71 29 152 29q51 0 107 -19.5t97.5 -44t98 -47.5t106.5 -28q81 0 160 53v-152q-86 -36 -160 -36q-48 0 -103 21.5t-97.5 48t-99.5 48t-109 21.5q-122 0 -152 -47z" />
<glyph unicode="&#xf6;" horiz-adv-x="1417" d="M104 266v656q0 110 78.5 188t188.5 78h676q110 0 188 -78t78 -188v-656q0 -110 -78 -188t-188 -78h-676q-110 0 -188.5 78t-78.5 188zM326 266q0 -19 13 -32t32 -13h676q19 0 32 13t13 32v656q0 19 -13 32t-32 13h-676q-19 0 -32 -13t-13 -32v-656zM424 1475v221h221 v-221h-221zM772 1475v221h221v-221h-221z" />
<glyph unicode="&#xf7;" horiz-adv-x="1028" d="M37 496v221h983v-221h-983zM412 0v221h221v-221h-221zM412 983v221h221v-221h-221z" />
<glyph unicode="&#xf9;" horiz-adv-x="1423" d="M109 266v922h221v-922q0 -19 13 -32t32 -13h676q19 0 32 13t13 32v922h221v-922q0 -110 -78 -188t-188 -78h-676q-110 0 -188 78t-78 188zM559 1804h221l82 -331h-221z" />
<glyph unicode="&#xfa;" horiz-adv-x="1423" d="M109 266v922h221v-922q0 -19 13 -32t32 -13h676q19 0 32 13t13 32v922h221v-922q0 -110 -78 -188t-188 -78h-676q-110 0 -188 78t-78 188zM559 1473l82 331h221l-82 -331h-221z" />
<glyph unicode="&#xfb;" horiz-adv-x="1423" d="M109 266v922h221v-922q0 -19 13 -32t32 -13h676q19 0 32 13t13 32v922h221v-922q0 -110 -78 -188t-188 -78h-676q-110 0 -188 78t-78 188zM461 1473l174 288h151l175 -288h-154l-96 155l-99 -155h-151z" />
<glyph unicode="&#xfc;" horiz-adv-x="1423" d="M109 266v922h221v-922q0 -19 13 -32t32 -13h676q19 0 32 13t13 32v922h221v-922q0 -110 -78 -188t-188 -78h-676q-110 0 -188 78t-78 188zM426 1470v222h221v-222h-221zM774 1470v222h221v-222h-221z" />
<glyph unicode="&#xfd;" horiz-adv-x="1409" d="M86 266v918h221v-918q0 -19 13 -32t32 -13h676q19 0 32 13t13 32v918h221v-729v-4v-656q0 -110 -78 -188t-188 -78h-733v221h733q19 0 32 13t13 32v205h-721q-110 0 -188 78t-78 188zM553 1473l82 331h221l-82 -331h-221z" />
<glyph unicode="&#xff;" horiz-adv-x="1409" d="M86 266v918h221v-918q0 -19 13 -32t32 -13h676q19 0 32 13t13 32v918h221v-729v-4v-656q0 -110 -78 -188t-188 -78h-733v221h733q19 0 32 13t13 32v205h-721q-110 0 -188 78t-78 188zM420 1475v221h221v-221h-221zM768 1475v221h221v-221h-221z" />
<glyph unicode="&#x152;" horiz-adv-x="2813" d="M109 266v942q0 110 78 188.5t188 78.5h2339v-222h-1131v-405h909v-221h-909v-406h1131v-221h-2339q-110 0 -188 78t-78 188zM330 266q0 -19 13 -32t32 -13h942q19 0 32 13t13 32v942q0 19 -13 32t-32 13h-942q-19 0 -32 -13t-13 -32v-942z" />
<glyph unicode="&#x153;" horiz-adv-x="2410" d="M106 266v656q0 110 78.5 188t188.5 78h1663q110 0 188 -78t78 -188v-439h-987v-217q0 -19 13 -32t32 -13h942v-221h-1929q-110 0 -188.5 78t-78.5 188zM328 266q0 -19 13 -32t32 -13h676q19 0 32 13t13 32v656q0 19 -13 32t-32 13h-676q-19 0 -32 -13t-13 -32v-656z M1315 705h766v217q0 19 -13 32t-32 13h-676q-19 0 -32 -13t-13 -32v-217z" />
<glyph unicode="&#x178;" horiz-adv-x="1650" d="M35 1475h260l530 -672l529 672h262l-680 -922v-553h-221v553zM541 1679v222h221v-222h-221zM889 1679v222h221v-222h-221z" />
<glyph unicode="&#x2c6;" horiz-adv-x="614" d="M57 1692l174 288h152l174 -288h-154l-96 155l-98 -155h-152z" />
<glyph unicode="&#x2dc;" horiz-adv-x="825" d="M47 1794v154q68 28 152 28q51 0 107 -19.5t97.5 -44t98 -47.5t106.5 -28q81 0 160 53v-151q-88 -37 -160 -37q-48 0 -103 21.5t-97.5 48t-99.5 48t-109 21.5q-122 0 -152 -47z" />
<glyph unicode="&#x2000;" horiz-adv-x="1012" />
<glyph unicode="&#x2001;" horiz-adv-x="2025" />
<glyph unicode="&#x2002;" horiz-adv-x="1012" />
<glyph unicode="&#x2003;" horiz-adv-x="2025" />
<glyph unicode="&#x2004;" horiz-adv-x="675" />
<glyph unicode="&#x2005;" horiz-adv-x="506" />
<glyph unicode="&#x2006;" horiz-adv-x="337" />
<glyph unicode="&#x2007;" horiz-adv-x="337" />
<glyph unicode="&#x2008;" horiz-adv-x="253" />
<glyph unicode="&#x2009;" horiz-adv-x="405" />
<glyph unicode="&#x200a;" horiz-adv-x="112" />
<glyph unicode="&#x2010;" horiz-adv-x="1058" d="M121 496v221h819v-221h-819z" />
<glyph unicode="&#x2011;" horiz-adv-x="1058" d="M121 496v221h819v-221h-819z" />
<glyph unicode="&#x2012;" horiz-adv-x="1058" d="M121 496v221h819v-221h-819z" />
<glyph unicode="&#x2013;" horiz-adv-x="1449" d="M111 494v221h1228v-221h-1228z" />
<glyph unicode="&#x2014;" horiz-adv-x="1683" d="M111 494v221h1462v-221h-1462z" />
<glyph unicode="&#x2018;" horiz-adv-x="397" d="M70 991v221q0 99 63.5 173.5t157.5 89.5v-484h-221z" />
<glyph unicode="&#x2019;" horiz-adv-x="395" d="M111 991v484h221v-222q0 -99 -63 -173t-158 -89z" />
<glyph unicode="&#x201c;" horiz-adv-x="774" d="M94 991v221q0 99 63.5 173.5t157.5 89.5v-484h-221zM444 991v221q0 99 63.5 173.5t158.5 89.5v-484h-222z" />
<glyph unicode="&#x201d;" horiz-adv-x="774" d="M111 991v484h221v-222q0 -99 -63 -173t-158 -89zM461 991v484h221v-222q0 -99 -63 -173t-158 -89z" />
<glyph unicode="&#x2022;" horiz-adv-x="759" d="M268 717v41q0 41 22.5 63.5t63.5 22.5h47q43 0 65.5 -22.5t22.5 -63.5v-41q0 -41 -22.5 -63.5t-65.5 -22.5h-47q-41 0 -63.5 22.5t-22.5 63.5z" />
<glyph unicode="&#x2026;" horiz-adv-x="1175" d="M111 0v221h221v-221h-221zM477 0v221h221v-221h-221zM844 0v221h221v-221h-221z" />
<glyph unicode="&#x202f;" horiz-adv-x="405" />
<glyph unicode="&#x205f;" horiz-adv-x="506" />
<glyph unicode="&#x20ac;" horiz-adv-x="1636" d="M72 446v222h204v139h-204v221h204v180q0 110 78.5 188.5t188.5 78.5h999v-222h-999q-19 0 -32 -13t-13 -32v-180h823v-221h-823v-139h823v-222h-823v-180q0 -19 13 -32t32 -13h999v-221h-999q-110 0 -188.5 78t-78.5 188v180h-204z" />
<glyph unicode="&#xe000;" horiz-adv-x="1187" d="M0 0v1188h1188v-1188h-1188z" />
<hkern u1="&#x20;" u2="a" k="-80" />
<hkern u1="A" u2="Y" k="20" />
<hkern u1="A" u2="W" k="10" />
<hkern u1="B" u2="Y" k="72" />
<hkern u1="B" u2="V" k="102" />
<hkern u1="C" u2="Y" k="-8" />
<hkern u1="D" u2="Z" k="4" />
<hkern u1="D" u2="V" k="33" />
<hkern u1="E" u2="O" k="6" />
<hkern u1="E" u2="M" k="6" />
<hkern u1="F" u2="T" k="-82" />
<hkern u1="F" u2="J" k="184" />
<hkern u1="F" u2="G" k="-20" />
<hkern u1="G" u2="Y" k="8" />
<hkern u1="G" u2="W" k="41" />
<hkern u1="K" u2="H" k="41" />
<hkern u1="K" u2="A" k="10" />
<hkern u1="L" u2="Z" k="-20" />
<hkern u1="L" u2="Y" k="266" />
<hkern u1="L" u2="W" k="307" />
<hkern u1="L" u2="V" k="311" />
<hkern u1="L" u2="M" k="-8" />
<hkern u1="L" u2="E" k="-20" />
<hkern u1="M" u2="c" k="20" />
<hkern u1="O" u2="X" k="18" />
<hkern u1="O" u2="W" k="82" />
<hkern u1="O" u2="V" k="76" />
<hkern u1="P" u2="J" k="164" />
<hkern u1="R" u2="W" k="8" />
<hkern u1="R" u2="V" k="61" />
<hkern u1="S" u2="q" k="-20" />
<hkern u1="S" u2="W" k="20" />
<hkern u1="S" u2="N" k="-8" />
<hkern u1="T" u2="z" k="20" />
<hkern u1="T" u2="y" k="20" />
<hkern u1="T" u2="w" k="20" />
<hkern u1="T" u2="u" k="41" />
<hkern u1="T" u2="s" k="61" />
<hkern u1="T" u2="o" k="41" />
<hkern u1="T" u2="Y" k="-14" />
<hkern u1="T" u2="T" k="-12" />
<hkern u1="T" u2="H" k="-20" />
<hkern u1="V" u2="s" k="41" />
<hkern u1="V" u2="O" k="25" />
<hkern u1="V" u2="A" k="41" />
<hkern u1="W" u2="u" k="113" />
<hkern u1="W" u2="o" k="133" />
<hkern u1="W" u2="i" k="10" />
<hkern u1="W" u2="e" k="143" />
<hkern u1="W" u2="a" k="102" />
<hkern u1="W" u2="O" k="8" />
<hkern u1="W" u2="A" k="20" />
<hkern u1="X" u2="B" k="4" />
<hkern u1="Y" u2="u" k="41" />
<hkern u1="Y" u2="s" k="102" />
<hkern u1="Y" u2="p" k="41" />
<hkern u1="Y" u2="o" k="102" />
<hkern u1="Y" u2="i" k="41" />
<hkern u1="Y" u2="e" k="82" />
<hkern u1="Y" u2="a" k="61" />
<hkern u1="Y" u2="S" k="20" />
<hkern u1="Z" u2="Y" k="6" />
<hkern u1="a" u2="z" k="16" />
<hkern u1="a" u2="x" k="10" />
<hkern u1="a" u2="w" k="82" />
<hkern u1="a" u2="v" k="82" />
<hkern u1="a" u2="s" k="49" />
<hkern u1="a" u2="r" k="41" />
<hkern u1="a" u2="n" k="41" />
<hkern u1="a" u2="m" k="55" />
<hkern u1="a" u2="l" k="41" />
<hkern u1="a" u2="j" k="10" />
<hkern u1="a" u2="c" k="31" />
<hkern u1="a" u2="b" k="37" />
<hkern u1="b" u2="w" k="31" />
<hkern u1="b" u2="v" k="47" />
<hkern u1="b" u2="o" k="10" />
<hkern u1="b" u2="d" k="-41" />
<hkern u1="c" u2="z" k="41" />
<hkern u1="c" u2="v" k="31" />
<hkern u1="c" u2="u" k="33" />
<hkern u1="c" u2="t" k="41" />
<hkern u1="c" u2="k" k="31" />
<hkern u1="c" u2="h" k="31" />
<hkern u1="c" u2="e" k="31" />
<hkern u1="d" u2="v" k="10" />
<hkern u1="d" u2="u" k="49" />
<hkern u1="d" u2="o" k="49" />
<hkern u1="d" u2="e" k="31" />
<hkern u1="e" u2="x" k="31" />
<hkern u1="e" u2="w" k="82" />
<hkern u1="e" u2="v" k="96" />
<hkern u1="e" u2="r" k="41" />
<hkern u1="e" u2="l" k="10" />
<hkern u1="e" u2="j" k="6" />
<hkern u1="e" u2="e" k="41" />
<hkern u1="e" u2="c" k="20" />
<hkern u1="f" u2="y" k="-16" />
<hkern u1="f" u2="r" k="-6" />
<hkern u1="f" u2="i" k="-10" />
<hkern u1="f" u2="g" k="-6" />
<hkern u1="f" u2="b" k="-29" />
<hkern u1="f" u2="&#x2c;" k="141" />
<hkern u1="g" u2="w" k="113" />
<hkern u1="g" u2="u" k="33" />
<hkern u1="g" u2="s" k="33" />
<hkern u1="g" u2="r" k="33" />
<hkern u1="g" u2="o" k="20" />
<hkern u1="g" u2="j" k="-369" />
<hkern u1="g" u2="e" k="16" />
<hkern u1="g" u2="c" k="33" />
<hkern u1="g" u2="a" k="10" />
<hkern u1="i" u2="x" k="-4" />
<hkern u1="i" u2="q" k="-41" />
<hkern u1="i" u2="p" k="33" />
<hkern u1="i" u2="n" k="31" />
<hkern u1="i" u2="f" k="-2" />
<hkern u1="i" u2="a" k="-4" />
<hkern u1="j" u2="j" k="-352" />
<hkern u1="j" u2="e" k="20" />
<hkern u1="k" u2="v" k="-4" />
<hkern u1="k" u2="l" k="-2" />
<hkern u1="k" u2="e" k="51" />
<hkern u1="l" u2="&#x2019;" k="20" />
<hkern u1="l" u2="y" k="31" />
<hkern u1="l" u2="w" k="209" />
<hkern u1="l" u2="v" k="41" />
<hkern u1="l" u2="u" k="-29" />
<hkern u1="l" u2="i" k="-20" />
<hkern u1="l" u2="d" k="-10" />
<hkern u1="m" u2="w" k="10" />
<hkern u1="m" u2="p" k="20" />
<hkern u1="m" u2="m" k="63" />
<hkern u1="m" u2="k" k="47" />
<hkern u1="m" u2="g" k="31" />
<hkern u1="m" u2="c" k="10" />
<hkern u1="m" u2="a" k="20" />
<hkern u1="n" u2="x" k="66" />
<hkern u1="n" u2="o" k="20" />
<hkern u1="n" u2="c" k="33" />
<hkern u1="n" u2="b" k="16" />
<hkern u1="o" u2="x" k="80" />
<hkern u1="o" u2="w" k="123" />
<hkern u1="o" u2="v" k="72" />
<hkern u1="o" u2="u" k="31" />
<hkern u1="o" u2="t" k="51" />
<hkern u1="o" u2="s" k="51" />
<hkern u1="o" u2="r" k="41" />
<hkern u1="o" u2="o" k="61" />
<hkern u1="o" u2="n" k="31" />
<hkern u1="o" u2="l" k="41" />
<hkern u1="o" u2="j" k="10" />
<hkern u1="o" u2="a" k="33" />
<hkern u1="p" u2="r" k="-20" />
<hkern u1="p" u2="l" k="-10" />
<hkern u1="q" u2="j" k="-371" />
<hkern u1="r" u2="d" k="-61" />
<hkern u1="r" u2="a" k="-10" />
<hkern u1="r" u2="&#x2e;" k="41" />
<hkern u1="r" u2="&#x2c;" k="141" />
<hkern u1="s" u2="z" k="66" />
<hkern u1="s" u2="x" k="96" />
<hkern u1="s" u2="v" k="102" />
<hkern u1="s" u2="u" k="31" />
<hkern u1="s" u2="n" k="47" />
<hkern u1="s" u2="k" k="47" />
<hkern u1="s" u2="g" k="31" />
<hkern u1="s" u2="e" k="10" />
<hkern u1="s" u2="c" k="4" />
<hkern u1="t" u2="z" k="-20" />
<hkern u1="t" u2="y" k="-31" />
<hkern u1="t" u2="w" k="-16" />
<hkern u1="t" u2="h" k="-10" />
<hkern u1="t" u2="d" k="-31" />
<hkern u1="t" u2="&#x2e;" k="-20" />
<hkern u1="u" u2="z" k="31" />
<hkern u1="u" u2="x" k="31" />
<hkern u1="u" u2="t" k="31" />
<hkern u1="u" u2="s" k="20" />
<hkern u1="u" u2="p" k="14" />
<hkern u1="u" u2="m" k="41" />
<hkern u1="u" u2="f" k="47" />
<hkern u1="u" u2="e" k="51" />
<hkern u1="u" u2="c" k="49" />
<hkern u1="u" u2="b" k="10" />
<hkern u1="v" u2="t" k="-10" />
<hkern u1="v" u2="s" k="63" />
<hkern u1="v" u2="o" k="72" />
<hkern u1="v" u2="i" k="16" />
<hkern u1="v" u2="e" k="129" />
<hkern u1="w" u2="y" k="16" />
<hkern u1="w" u2="s" k="51" />
<hkern u1="w" u2="r" k="66" />
<hkern u1="w" u2="o" k="72" />
<hkern u1="w" u2="n" k="51" />
<hkern u1="w" u2="g" k="49" />
<hkern u1="w" u2="e" k="82" />
<hkern u1="w" u2="a" k="51" />
<hkern u1="x" u2="e" k="10" />
<hkern u1="y" u2="o" k="31" />
<hkern u1="y" u2="n" k="49" />
<hkern u1="y" u2="j" k="-340" />
<hkern u1="y" u2="e" k="31" />
<hkern u1="y" u2="c" k="16" />
<hkern u1="y" u2="a" k="10" />
<hkern u1="z" u2="z" k="47" />
<hkern u1="z" u2="t" k="33" />
<hkern u1="z" u2="l" k="16" />
<hkern u1="z" u2="e" k="41" />
<hkern u1="z" u2="a" k="51" />
</font>
</defs></svg> 